{
  "key" : "testkey16",
  "name" : "name",
  "baseUrl" : "https://33f0b5b6.eu.ngrok.io",
  "authentication" : {
    "type" : "none"
  },
  "modules" : {
    "generalPages" : [
      {
        "url": "/hello.html",
        "key": "7623",
        "name": {
          "value": "Test html!"
        }
      }
    ],

    "dialogs" : [
      {
        "url": "/dialog.html",
        "options": {
          "size": "small",
          "header": {
            "value": "Example Dialog"
          }
        },
        "key": "adam"
      }
    ]
  }
}